Decod/simulation/qsim/Decod.msim.vcd
$comment
	File created using the following command:
		vcd file Decod.msim.vcd -direction
$end
$date
	Wed May 24 14:54:02 2023
$end
$version
	ModelSim Version 10.1d
$end
$timescale
	1ps
$end
$scope module Decod_vlg_vec_tst $end
$var reg 1 ! w $end
$var reg 1 " x $end
$var reg 1 # y $end
$var reg 1 $ z $end
$var wire 1 % a $end
$var wire 1 & b $end
$var wire 1 ' c $end
$var wire 1 ( d $end
$var wire 1 ) e $end
$var wire 1 * f $end
$var wire 1 + g $end
$var wire 1 , sampler $end
$scope module i1 $end
$var wire 1 - gnd $end
$var wire 1 . vcc $end
$var wire 1 / unknown $end
$var tri1 1 0 devclrn $end
$var tri1 1 1 devpor $end
$var tri1 1 2 devoe $end
$var wire 1 3 w~combout $end
$var wire 1 4 y~combout $end
$var wire 1 5 x~combout $end
$var wire 1 6 z~combout $end
$var wire 1 7 inst|69~0_combout $end
$var wire 1 8 inst|68~0_combout $end
$var wire 1 9 inst|70~combout $end
$var wire 1 : inst|67~0_combout $end
$var wire 1 ; inst|71~combout $end
$var wire 1 < inst|66~0_combout $end
$var wire 1 = inst|72~combout $end
$upscope $end
$upscope $end
$enddefinitions $end
#0
$dumpvars
0!
0"
0#
0$
1%
1&
1'
1(
1)
1*
0+
x,
0-
1.
x/
10
11
12
03
04
05
06
07
08
09
0:
0;
0<
1=
$end
#5000
1"
15
0,
1<
1;
1:
17
0*
0)
0(
0%
#10000
1#
0"
14
05
1,
0=
0;
0:
19
07
1+
1)
1(
0'
1%
#15000
1"
15
0,
1;
09
0)
1'
#20000
1$
0#
0"
16
04
05
1,
0<
1:
17
1*
0(
0%
#25000
1"
15
0,
0:
18
07
1(
0&
1%
#30000
1#
0"
14
05
1,
0;
17
1)
0%
#35000
1"
15
0,
1=
1<
1;
1:
08
07
0+
0*
0)
0(
1&
1%
#40000
1!
0$
0#
0"
13
06
04
05
1,
0=
0<
0;
0:
1+
1*
1)
1(
#45000
1"
15
0,
1;
1:
0)
0(
#50000
1#
0"
14
05
1,
1<
0;
0:
19
18
17
0*
1)
1(
0'
0&
0%
#55000
1"
15
0,
1;
09
0)
1'
#60000
1$
0#
0"
16
04
05
1,
0<
1:
19
08
1*
0(
0'
1&
#65000
1"
15
0,
0:
18
07
1(
0&
1%
#70000
1#
0"
14
05
1,
0;
17
1)
0%
#75000
1"
15
0,
1=
1<
1;
1:
0+
0*
0)
0(
#80000
0!
0$
0#
0"
03
06
04
05
1,
0<
09
08
07
0;
0:
1*
1'
1&
1%
1)
1(
#85000
1"
15
0,
1<
1;
1:
17
0*
0)
0(
0%
#90000
1#
0"
14
05
1,
0=
0;
0:
19
07
1+
1)
1(
0'
1%
#95000
1"
15
0,
1;
09
0)
1'
